verilator/dump.vcd
$version Generated by VerilatedVcd $end
$timescale 1ps $end
 $scope module top $end
  $scope module $unit $end
   $var wire 32 < X_I [31:0] $end
   $var wire 32 = X_F [31:0] $end
   $var wire 32 > X_W [31:0] $end
   $var wire 32 < X1_I [31:0] $end
   $var wire 32 ? X1_F [31:0] $end
   $var wire 32 @ X1_W [31:0] $end
   $var wire 32 A X2_I [31:0] $end
   $var wire 32 B X2_J [31:0] $end
   $var wire 32 C X2_F [31:0] $end
   $var wire 32 C X2_W [31:0] $end
   $var wire 32 D Y_I [31:0] $end
   $var wire 32 = Y_F [31:0] $end
   $var wire 32 > Y_W [31:0] $end
   $var wire 32 E A_I [31:0] $end
   $var wire 32 F A_F [31:0] $end
   $var wire 32 G A_W [31:0] $end
   $var wire 32 E B_I [31:0] $end
   $var wire 32 H B_F [31:0] $end
   $var wire 32 I B_W [31:0] $end
   $var wire 32 E C_I [31:0] $end
   $var wire 32 @ C_F [31:0] $end
   $var wire 32 J C_W [31:0] $end
   $var wire 32 K R_F [31:0] $end
   $var wire 32 D S_I [31:0] $end
   $var wire 32 L S_F [31:0] $end
   $var wire 32 M S_W [31:0] $end
   $var wire 32 D SQ_I [31:0] $end
   $var wire 32 > SQ_F [31:0] $end
   $var wire 32 N SQ_W [31:0] $end
   $var wire 32 E T0_I [31:0] $end
   $var wire 32 L T0_F [31:0] $end
   $var wire 32 O T0_W [31:0] $end
   $var wire 32 K T1_I [31:0] $end
   $var wire 32 L T1_F [31:0] $end
   $var wire 32 P T1_W [31:0] $end
   $var wire 32 Q T2_I [31:0] $end
   $var wire 32 L T2_F [31:0] $end
   $var wire 32 R T2_W [31:0] $end
  $upscope $end
  $var wire 1 3 clk $end
  $var wire 1 4 rst_b $end
  $var wire 24 5 x [23:0] $end
  $var wire 1 6 x_dv $end
  $var wire 24 7 y [23:0] $end
  $var wire 1 8 y_dv $end
  $scope module quadra_top $end
   $var wire 1 3 clk $end
   $var wire 1 4 rst_b $end
   $var wire 24 5 x [23:0] $end
   $var wire 1 6 x_dv $end
   $var wire 24 7 y [23:0] $end
   $var wire 1 8 y_dv $end
   $var wire 1 & dv_p0 $end
   $var wire 1 ' dv_p1 $end
   $var wire 1 ( dv_p2 $end
   $scope module quadra_inst $end
    $var wire 1 3 clk $end
    $var wire 1 4 rst_b $end
    $var wire 24 5 x [23:0] $end
    $var wire 1 ( x_dv $end
    $var wire 24 7 y [23:0] $end
    $var wire 1 8 y_dv $end
    $var wire 1 ) dv_p0 $end
    $var wire 1 * dv_p1 $end
    $var wire 1 + dv_p2 $end
    $var wire 7 9 x1 [6:0] $end
    $var wire 17 : x2 [16:0] $end
    $var wire 26 ; sq [25:0] $end
    $var wire 21 # a [20:0] $end
    $var wire 15 $ b [14:0] $end
    $var wire 10 % c [9:0] $end
    $var wire 32 , t1_full [31:0] $end
    $var wire 31 - t1 [30:0] $end
    $var wire 36 . t2_full [35:0] $end
    $var wire 32 0 t2 [31:0] $end
    $var wire 29 1 s [28:0] $end
    $var wire 1 2 y_dv_r $end
    $scope module lut_inst $end
     $var wire 7 9 x1 [6:0] $end
     $var wire 21 # a [20:0] $end
     $var wire 15 $ b [14:0] $end
     $var wire 10 % c [9:0] $end
    $upscope $end
    $scope module square_inst $end
     $var wire 17 : x2 [16:0] $end
     $var wire 26 ; sq [25:0] $end
    $upscope $end
   $upscope $end
  $upscope $end
 $upscope $end
$enddefinitions $end


#500
b111010010101111101100 #
b001011010100001 $
b0010110101 %
0&
0'
1(
1)
1*
1+
b01110011010110000001011000110101 ,
b0101101111110111100100100010010 -
b101001100010111110011010101101010110 .
b10110100001100100011101111111101 0
b11100011010110100000111110100 1
12
03
14
b000000000000000000000000 5
06
b000101111000001101111000 7
18
b0000000 9
b00000000000000000 :
b00000000000000000000000000 ;
b00000000000000000000000000000001 <
b00000000000000000000000000010111 =
b00000000000000000000000000011000 >
b00000000000000000000000000000110 ?
b00000000000000000000000000000111 @
b00000000000000000000000000000000 A
b11111111111111111111111111111010 B
b00000000000000000000000000010001 C
b00000000000000000000000000000010 D
b00000000000000000000000000000011 E
b00000000000000000000000000010010 F
b00000000000000000000000000010101 G
b00000000000000000000000000001100 H
b00000000000000000000000000001111 I
b00000000000000000000000000001010 J
b00000000000000000000000000000100 K
b00000000000000000000000000011011 L
b00000000000000000000000000011101 M
b00000000000000000000000000011010 N
b00000000000000000000000000011110 O
b00000000000000000000000000011111 P
b00000000000000000000000000000101 Q
b00000000000000000000000000100000 R
#1000
0(
b00000000000000000000000000000000 ,
b0011100110101100000010110001101 -
b000000000000000000000000000000000000 .
b10100110001011111001101010110101 0
b00010001010110011000011111011 1
13
b011010110100000111110100 7
#1500
0)
0*
0+
b0000000000000000000000000000000 -
b00000000000000000000000000000000 0
b00000000000000000000000000000 1
02
03
04
b000000000000000000000000 7
08
#2000
13
#2500
03
14
#3000
13
#3500
03
#4000
13
#4500
03
#5000
13
#5500
03
#6000
13
#6500
03
#7000
13
#7500
03
#8000
13
#8500
03
#9000
13
#9500
03
#10000
13
#10500
03
#11000
13
#11500
03
#12000
13
#12500
03
#13000
13
#13500
03
#14000
13
#14500
03
#15000
13
#15500
b111111101010101000000 #
b110000000000111 $
b1100000000 %
03
b111111111111111111110000 5
16
b1111111 9
b11111111111110000 :
b00000000000000000111100000 ;
#16000
1&
13
#16500
03
b111111111111111111110001 5
b11111111111110001 :
b00000000000000000111100010 ;
#17000
1'
13
#17500
03
b111111111111111111110010 5
b11111111111110010 :
b00000000000000000111100100 ;
#18000
1(
13
#18500
03
b111111111111111111110011 5
b11111111111110011 :
b00000000000000000111100110 ;
#19000
1)
13
#19500
03
b111111111111111111110100 5
b11111111111110100 :
b00000000000000000111101000 ;
#20000
1*
13
#20500
03
b111111111111111111110101 5
b11111111111110101 :
b00000000000000000111101010 ;
#21000
1+
b11000000000010011101111110110011 ,
13
#21500
03
b111111111111111111110110 5
b11111111111110110 :
b00000000000000000111101100 ;
#22000
b11000000000010100011111110111010 ,
b1110000000000100111011111101100 -
b000000000000000001011100010000000000 .
b11111111111111101010101000000 1
12
13
18
#22500
03
b111111111111111111110111 5
b11111111111110111 :
b00000000000000000111101110 ;
#23000
b11000000000010101001111111000001 ,
b1110000000000101000111111101110 -
b000000000000000001011100101000000000 .
b00000000000000000101110001000000 0
b10000000000100100110100101100 1
13
b111111111101010101000000 7
#23500
03
b111111111111111111111000 5
b11111111111111000 :
b00000000000000000111110000 ;
#24000
b11000000000010101111111111001000 ,
b1110000000000101010011111110000 -
b000000000000000001011101000000000000 .
b00000000000000000101110010100000 0
b10000000000101100000101101110 1
13
b000000100100110100101100 7
#24500
03
b111111111111111111111001 5
b11111111111111001 :
b00000000000000000111110010 ;
#25000
b11000000000010110101111111001111 ,
b1110000000000101011111111110010 -
b000000000000000001011101011000000000 .
b00000000000000000101110100000000 0
b10000000000101101100111010000 1
13
b000000101100000101101110 7
#25500
03
b111111111111111111111010 5
b11111111111111010 :
b00000000000000000111110100 ;
#26000
b11000000000010111011111111010110 ,
b1110000000000101101011111110011 -
b000000000000000001011101110000000000 .
b00000000000000000101110101100000 0
b10000000000101111001000110010 1
13
b000000101101100111010000 7
#26500
03
b111111111111111111111011 5
b11111111111111011 :
b00000000000000000111110110 ;
#27000
b11000000000011000001111111011101 ,
b1110000000000101110111111110101 -
b000000000000000001011110001000000000 .
b00000000000000000101110111000000 0
b10000000000110000101010010011 1
13
b000000101111001000110010 7
#27500
03
b111111111111111111111100 5
b11111111111111100 :
b00000000000000000111111000 ;
#28000
b11000000000011000111111111100100 ,
b1110000000000110000011111110111 -
b000000000000000001011110100000000000 .
b00000000000000000101111000100000 0
b10000000000110010001011110101 1
13
b000000110000101010010011 7
#28500
03
b111111111111111111111101 5
b11111111111111101 :
b00000000000000000111111010 ;
#29000
b11000000000011001101111111101011 ,
b1110000000000110001111111111001 -
b000000000000000001011110111000000000 .
b00000000000000000101111010000000 0
b10000000000110011101101010111 1
13
b000000110010001011110101 7
#29500
03
b111111111111111111111110 5
b11111111111111110 :
b00000000000000000111111100 ;
#30000
b11000000000011010011111111110010 ,
b1110000000000110011011111111010 -
b000000000000000001011111010000000000 .
b00000000000000000101111011100000 0
b10000000000110101001110111001 1
13
b000000110011101101010111 7
#30500
03
b111111111111111111111111 5
b11111111111111111 :
b00000000000000000111111110 ;
#31000
b11000000000011011001111111111001 ,
b1110000000000110100111111111100 -
b000000000000000001011111101000000000 .
b00000000000000000101111101000000 0
b10000000000110110110000011010 1
13
b000000110101001110111001 7
#31500
b111010010101111101100 #
b001011010100001 $
b0010110101 %
03
b000000000000000000000000 5
06
b0000000 9
b00000000000000000 :
b00000000000000000000000000 ;
#32000
0&
b00000000000000000000000000000000 ,
b1110000000000110110011111111110 -
b000000000000000000000000000000000000 .
b00000000000000000101111110100000 0
b10000000000001101101100101000 1
13
b000000110110110000011010 7
#32500
03
#33000
0'
b0000000000000000000000000000000 -
b00000000000000000000000000000000 0
b10000000000001111001110001010 1
13
b000000001101101100101000 7
#33500
03
#34000
0(
b11111111111010010101111101100 1
13
b000000001111001110001010 7
#34500
03
#35000
0)
13
b111111010010101111101100 7
#35500
03
#36000
0*
13
